Mon Jul 20 18:30:41 EDT 2009
IF => w1g1                         Number of receiver overrun errors:  0
IF => w2g1                         Number of receiver overrun errors:  0
IF => w3g1                         Number of receiver overrun errors:  0
IF => w4g1                         Number of receiver overrun errors:  0
IF => w5g1                         Number of receiver overrun errors:  0
IF => w6g1                         Number of receiver overrun errors:  0
IF => w7g1                         Number of receiver overrun errors:  0
IF => w8g1                         Number of receiver overrun errors:  0
IF => w9g1                         Number of receiver overrun errors:  0
IF => w10g1                         Number of receiver overrun errors:  0
IF => w11g1                         Number of receiver overrun errors:  0
IF => w12g1                         Number of receiver overrun errors:  0
IF => w13g1                         Number of receiver overrun errors:  0
IF => w14g1                         Number of receiver overrun errors:  0
IF => w15g1                         Number of receiver overrun errors:  0
IF => w16g1                         Number of receiver overrun errors:  0
Mon Jul 20 18:31:12 EDT 2009
IF => w1g1                         Number of receiver overrun errors:  0
IF => w2g1                         Number of receiver overrun errors:  0
IF => w3g1                         Number of receiver overrun errors:  0
IF => w4g1                         Number of receiver overrun errors:  0
IF => w5g1                         Number of receiver overrun errors:  0
IF => w6g1                         Number of receiver overrun errors:  0
IF => w7g1                         Number of receiver overrun errors:  0
IF => w8g1                         Number of receiver overrun errors:  0
IF => w9g1                         Number of receiver overrun errors:  0
IF => w10g1                         Number of receiver overrun errors:  0
IF => w11g1                         Number of receiver overrun errors:  0
IF => w12g1                         Number of receiver overrun errors:  0
IF => w13g1                         Number of receiver overrun errors:  0
IF => w14g1                         Number of receiver overrun errors:  0
IF => w15g1                         Number of receiver overrun errors:  0
IF => w16g1                         Number of receiver overrun errors:  0
Mon Jul 20 18:31:27 EDT 2009
IF => w1g1                         Number of receiver overrun errors:  0
IF => w2g1                         Number of receiver overrun errors:  0
IF => w3g1                         Number of receiver overrun errors:  0
IF => w4g1                         Number of receiver overrun errors:  0
IF => w5g1                         Number of receiver overrun errors:  0
IF => w6g1                         Number of receiver overrun errors:  0
IF => w7g1                         Number of receiver overrun errors:  0
IF => w8g1                         Number of receiver overrun errors:  0
IF => w9g1                         Number of receiver overrun errors:  0
IF => w10g1                         Number of receiver overrun errors:  0
IF => w11g1                         Number of receiver overrun errors:  0
IF => w12g1                         Number of receiver overrun errors:  0
IF => w13g1                         Number of receiver overrun errors:  0
IF => w14g1                         Number of receiver overrun errors:  0
IF => w15g1                         Number of receiver overrun errors:  0
IF => w16g1                         Number of receiver overrun errors:  0
Mon Jul 20 18:31:31 EDT 2009
IF => w1g1                         Number of receiver overrun errors:  0
IF => w2g1                         Number of receiver overrun errors:  0
IF => w3g1                         Number of receiver overrun errors:  0
IF => w4g1                         Number of receiver overrun errors:  0
IF => w5g1                         Number of receiver overrun errors:  0
IF => w6g1                         Number of receiver overrun errors:  0
IF => w7g1                         Number of receiver overrun errors:  0
IF => w8g1                         Number of receiver overrun errors:  0
IF => w9g1                         Number of receiver overrun errors:  0
IF => w10g1                         Number of receiver overrun errors:  0
IF => w11g1                         Number of receiver overrun errors:  0
IF => w12g1                         Number of receiver overrun errors:  0
IF => w13g1                         Number of receiver overrun errors:  0
IF => w14g1                         Number of receiver overrun errors:  0
IF => w15g1                         Number of receiver overrun errors:  0
IF => w16g1                         Number of receiver overrun errors:  0
Tue Jul 21 16:25:56 EDT 2009
IF => w1g1                         Number of receiver overrun errors:  0
IF => w2g1                         Number of receiver overrun errors:  0
IF => w3g1                         Number of receiver overrun errors:  0
IF => w4g1                         Number of receiver overrun errors:  0
IF => w5g1                         Number of receiver overrun errors:  0
IF => w6g1                         Number of receiver overrun errors:  0
IF => w7g1                         Number of receiver overrun errors:  0
IF => w8g1                         Number of receiver overrun errors:  0
IF => w9g1                         Number of receiver overrun errors:  0
IF => w10g1                         Number of receiver overrun errors:  0
IF => w11g1                         Number of receiver overrun errors:  0
IF => w12g1                         Number of receiver overrun errors:  0
IF => w13g1                         Number of receiver overrun errors:  0
IF => w14g1                         Number of receiver overrun errors:  0
IF => w15g1                         Number of receiver overrun errors:  0
